Setting up simple simulation studies in R | Herb Susmann
…
Now we can summarize the results to understand how, for example, the mean bias of the two estimators differs:

simulation_summary <- simulation_results %>%
  group_by(N, alpha, beta1, beta2, sigma, estimator) %>%
  summarize(bias = mean(estimate - true_ate))

## `summarise()` has grouped output by 'N', 'alpha', 'beta1', 'beta2', 'sigma'.
## You can override using the `.groups` argument.

simulation_summary

## # A tibble: 24 × 7
## # Groups:   N, alpha, beta1, beta2, sigma [12]
##        N alpha beta1 beta2 sigma estimator         bias
##    <dbl> <dbl> <dbl> <dbl> <dbl> <chr>            <dbl>
##  1    50     0     1     1   0.1 g-computation  0.00162
##  2    50     0     1     1   0.1 naive          0.0374 
##  3    50     1     1     1   0.1 g-computation  0.00171
##  4    50     1     1     1   0.1 naive          0.882  
##  5    50     2     1     1   0.1 g-computation -0.00233
##  6    50     2     1     1   0.1 naive          1.23   
##  7   100     0     1     1   0.1 g-computation  0.00296
##  8   100     0     1     1   0.1 naive          0.0273 
##  9   100     1     1     1   0.1 g-computation  0.00192
## 10   100     1     1     1   0.1 naive          0.817  
## # ℹ 14 more rows
…
